{
  "keywords": [
    "weather",
    "temperature",
    "New York",
    "LaGuardia Airport",
    "LGA"
  ],
  "variables": [
    {
      "type": "geospatial_variable",
      "bounding_box": {
        "latitude1":  12.1,
        "longitude1": 183.2,
        "latitude2": 45.7,
        "longitude2": 3.2,
        "granularity": "city"
      }
    },
    {
      "type": "temporal_variable",
      "start": "2018-01-01 00:00:00",
      "end": "2018-01-02 23:00:00",
      "granularity": "hour"
    },
    {
      "type": "named_entity_variable",
      "entities": [
        "Arsenal",
        "Chelsea"
      ]
    }
  ]
}
